%YAML 1.1
%TAG !u! tag:unity3d.com,2011:
--- !u!114 &11400000
MonoBehaviour:
  m_ObjectHideFlags: 0
  m_CorrespondingSourceObject: {fileID: 0}
  m_PrefabInstance: {fileID: 0}
  m_PrefabAsset: {fileID: 0}
  m_GameObject: {fileID: 0}
  m_Enabled: 1
  m_EditorHideFlags: 0
  m_Script: {fileID: 11500000, guid: 74890a04c52ef754389e8c32438c3e86, type: 3}
  m_Name: Initial phase for boss
  m_EditorClassIdentifier: 
  enemyPrefab: {fileID: 3437790119366568932, guid: a1be0971a5986eb44b0d570844de906a, type: 3}
  locations:
  - {fileID: 5914629453319864615, guid: c19a0af3da97a5440a29dfb1b744114c, type: 3}
  - {fileID: 5238182051393549354, guid: e8c54aa432d9834498df0d444d2890e3, type: 3}
  - {fileID: 8720190692267692384, guid: aa7f09eff38b6794c8d89aac4a4ec18e, type: 3}
