%YAML 1.1
%TAG !u! tag:unity3d.com,2011:
--- !u!114 &11400000
MonoBehaviour:
  m_ObjectHideFlags: 0
  m_CorrespondingSourceObject: {fileID: 0}
  m_PrefabInstance: {fileID: 0}
  m_PrefabAsset: {fileID: 0}
  m_GameObject: {fileID: 0}
  m_Enabled: 1
  m_EditorHideFlags: 0
  m_Script: {fileID: 11500000, guid: 60531d6ea496df342a999211f93e2389, type: 3}
  m_Name: ID=3 DMG
  m_EditorClassIdentifier: 
  Name: Double tap
  Description: Deals two points of damage to the enemy.
  AttackPowerCost: 2
  IsFinished: 0
  ID: 3
  AbilityType: 0
  Damage: 2
